{
  "docs": {
    "Intro": ["intro/introduction", "intro/installation", "intro/editor-support"],
    "Language Basics": [
      "language-basics/types",
      "language-basics/constants-and-variables",
      "language-basics/math-numbers-tez",
      "language-basics/strings-bytes",
      "language-basics/functions",
      "language-basics/boolean-if-else",
      "language-basics/loops",
      "language-basics/unit-option-pattern-matching",
      "language-basics/maps-records",
      "language-basics/sets-lists-tuples",
      "language-basics/exceptions",
      "language-basics/modules",
      "language-basics/tezos-specific"
    ],
    "Advanced": [
      "advanced/timestamps-addresses",
      "advanced/entrypoints-contracts",
      "advanced/include",
      "advanced/first-contract",
      "advanced/michelson-and-ligo",
      "advanced/polymorphism",
      "advanced/testing",
      "advanced/mutation-testing",
      "advanced/michelson_testing",
      "advanced/inline",
      "advanced/interop",
      "advanced/embedded-michelson",
      "advanced/package-management",
      "advanced/global-constants"
    ],
    "Reference": [
      "api/cli-commands",
      "api/cheat-sheet"
    ],
    "Command Line Options": [
      "manpages/ligo",
      "manpages/changelog",
      "manpages/compile constant",
      "manpages/compile contract",
      "manpages/compile expression",
      "manpages/compile parameter",
      "manpages/compile storage",
      "manpages/info get-scope",
      "manpages/info list-declarations",
      "manpages/info measure-contract",
      "manpages/install",
      "manpages/mutate ast",
      "manpages/mutate cst",
      "manpages/print ast-aggregated",
      "manpages/print ast-combined",
      "manpages/print ast-core",
      "manpages/print ast-imperative",
      "manpages/print ast-sugar",
      "manpages/print ast-typed",
      "manpages/print cst",
      "manpages/print dependency-graph",
      "manpages/print mini-c",
      "manpages/print preprocessed",
      "manpages/print pretty",
      "manpages/repl",
      "manpages/run dry-run",
      "manpages/run evaluate-call",
      "manpages/run evaluate-expr",
      "manpages/run interpret",
      "manpages/run test",
      "manpages/transpile contract",
      "manpages/transpile expression"
    ],
    "API":[
      "reference/toplevel",
      "reference/big-map-reference",
      "reference/bitwise-reference",
      "reference/bytes-reference",
      "reference/crypto-reference",
      "reference/list-reference",
      "reference/map-reference",
      "reference/set-reference",
      "reference/string-reference",
      "reference/option-reference",
      "reference/current-reference",
      "reference/test"
    ],
    "Protocol Upgrades": [
      "protocol/hangzhou",
      "protocol/ithaca"
    ]
  },
  "contributors-docs": {
    "Introduction": [
      "contributors/origin",
      "contributors/philosophy",
      "contributors/getting-started",
      "contributors/documentation-and-releases"
    ],
    "Big Picture": [
      "contributors/big-picture/overview",
      "contributors/big-picture/front-end",
      "contributors/big-picture/middle-end",
      "contributors/big-picture/back-end",
      "contributors/big-picture/vendors"
    ],
    "Road Map": [
      "contributors/road-map/short-term",
      "contributors/road-map/long-term"
    ]
  },
  "tutorials": {
    "Get-started" : [
      "tutorials/getting-started/getting-started"
    ],
    "First-contract": [
      "tutorials/taco-shop/tezos-taco-shop-smart-contract",
      "tutorials/taco-shop/tezos-taco-shop-payout"
    ],
    "Migrating from Ethereum": [
      "tutorials/tz-vs-eth/tz-vs-eth"
    ],
    "Inter-contract invocations": [
      "tutorials/inter-contract-calls/inter-contract-calls"
    ],
    "Security": [
      "tutorials/security/security"
    ],
    "Optimisation": [
      "tutorials/optimisation/optimisation"
    ]
  }
}
